…
p1 <- out1[["p"]]   # the assembled ggplot object
p1
```

<img src="man/figures/README-unnamed-chunk-18-1.png" alt="" width="100%" style="display: block; margin: auto;" />

``` r

out1$info           # auxiliary table: per-group node/edge counts, module info, etc.
#> # A tibble: 22 × 11
#>    modA   modB   overlap sizeA sizeB overlap_coef  pvalue   FDR Group    GroupA
#>    <chr>  <chr>    <int> <int> <int>        <dbl>   <dbl> <dbl> <chr>    <chr> 
#>  1 15     1            2     6    14        0.333 0.0140  0.776 KO_to_OE KO    
#>  2 16     3            2    19     8        0.25  0.0450  1     KO_to_OE KO    
#>  3 52     6            1     4     3        0.333 0.0280  0.895 KO_to_OE KO    
#>  4 4      8            2    16     6        0.333 0.0182  0.776 KO_to_OE KO    
#>  5 3      9            2    22     3        0.667 0.00741 0.633 KO_to_OE KO    
#>  6 7      9            1     4     3        0.333 0.0280  0.895 KO_to_OE KO    
#>  7 3      12           2    22     3        0.667 0.00741 0.633 KO_to_OE KO    
#>  8 1      15           2    32     3        0.667 0.0157  0.776 KO_to_OE KO    
#>  9 Others Others     224   263   342        0.852 0.00109 0.279 KO_to_OE KO    
#> 10 16     1            4    29    28        0.143 0.0415  1     KO_to_WT KO    
#> # ℹ 12 more rows
#> # ℹ 1 more variable: GroupB <chr>
```
…
topology_with_mat
#> $topology
#> # A tibble: 24 × 3
#>    Topology            Target_network Random_nerwork
#>    <chr>                        <dbl>          <dbl>
#>  1 Node                      213            213     
#>  2 Edge                      844            844     
#>  3 Degree                      7.92           7.92  
#>  4 Distance                    1.45           2.81  
#>  5 Diameter                    3.83           5.04  
#>  6 Density                     0.0374         0.0374
#>  7 Transitivity_global         0.851          0.0371
#>  8 Transitivity_local          0.783          0.0372
#>  9 Betweenness                 3.47         191.    
#> 10 Betweenness_edge            2.58          75.0   
#> # ℹ 14 more rows
…
